v 20130925 2
C 40000 40000 0 0 0 title-B.sym
C 43600 48900 1 180 1 lm358-1.sym
{
T 44275 48300 5 10 0 0 180 6 1
device=LM358
T 44300 47550 5 10 0 0 180 6 1
footprint=DIP8
T 43800 48000 5 10 1 1 180 6 1
refdes=U?
}
C 45400 47900 1 180 0 lm358-1.sym
{
T 44725 47300 5 10 0 0 180 0 1
device=LM358
T 44700 46550 5 10 0 0 180 0 1
footprint=DIP8
T 45200 47000 5 10 1 1 180 0 1
refdes=U?
}
N 44400 47800 45200 48300 4
N 45200 48300 45200 49000 4
N 45700 46900 45700 50000 4
N 45700 50000 46000 50000 4
B 45500 49500 1000 1000 3 0 0 0 -1 -1 0 -1 -1 -1 -1 -1
B 42500 49500 1000 1000 3 0 0 0 -1 -1 0 -1 -1 -1 -1 -1
B 45500 48500 1000 1000 3 0 0 0 -1 -1 0 -1 -1 -1 -1 -1
B 45500 47500 1000 1000 3 0 0 0 -1 -1 0 -1 -1 -1 -1 -1
B 45500 46500 1000 1000 3 0 0 0 -1 -1 0 -1 -1 -1 -1 -1
N 45200 49000 46000 49000 4
B 42500 48500 1000 1000 3 0 0 0 -1 -1 0 -1 -1 -1 -1 -1
B 42500 47500 1000 1000 3 0 0 0 -1 -1 0 -1 -1 -1 -1 -1
B 42500 46500 1000 1000 3 0 0 0 -1 -1 0 -1 -1 -1 -1 -1
N 44400 47800 44400 47500 4
N 44100 46900 45700 46900 4
N 44900 46900 44900 47100 4
N 44100 46900 44100 48100 4
N 44600 48500 44600 48800 4
N 44600 48800 43800 49300 4
N 43800 49300 43800 50000 4
N 43800 50000 43000 50000 4
N 44900 47900 44900 49700 4
N 44900 49700 43300 49700 4
N 43300 49700 43300 47000 4
N 43300 47000 43000 47000 4
N 44100 48900 44100 49700 4
N 43600 48700 43600 49000 4
N 43600 49000 43000 49000 4
N 43600 48300 43600 48000 4
N 43600 48000 43000 48000 4
N 45400 47700 45400 48000 4
N 45400 48000 46000 48000 4
N 45400 47300 45400 47000 4
N 45400 47000 46000 47000 4
B 42500 43500 1000 1000 3 0 0 0 -1 -1 0 -1 -1 -1 -1 -1
B 42500 44500 1000 1000 3 0 0 0 -1 -1 0 -1 -1 -1 -1 -1
B 45500 43500 1000 1000 3 0 0 0 -1 -1 0 -1 -1 -1 -1 -1
B 45500 44500 1000 1000 3 0 0 0 -1 -1 0 -1 -1 -1 -1 -1
B 45500 42500 1000 1000 3 0 0 0 -1 -1 0 -1 -1 -1 -1 -1
B 42500 42500 1000 1000 3 0 0 0 -1 -1 0 -1 -1 -1 -1 -1
B 42500 41500 1000 1000 3 0 0 0 -1 -1 0 -1 -1 -1 -1 -1
B 45500 41500 1000 1000 3 0 0 0 -1 -1 0 -1 -1 -1 -1 -1
C 44900 44800 1 0 0 capacitor-1.sym
{
T 45100 45500 5 10 0 0 0 0 1
device=CAPACITOR
T 45100 45300 5 10 1 1 0 0 1
refdes=C?
T 45100 45700 5 10 0 0 0 0 1
symversion=0.1
T 44900 44800 5 10 1 1 0 0 1
netname=150n
}
C 44300 41900 1 90 0 capacitor-1.sym
{
T 43600 42100 5 10 0 0 90 0 1
device=CAPACITOR
T 43800 42100 5 10 1 1 90 0 1
refdes=C?
T 43400 42100 5 10 0 0 90 0 1
symversion=0.1
T 44300 41900 5 10 1 1 0 0 1
netname=15n
}
