v 20130925 2
C 40000 40000 0 0 0 title-B.sym
C 47600 48400 1 180 1 lm358-1.sym
{
T 48275 47800 5 10 0 0 180 6 1
device=LM358
T 48300 47050 5 10 0 0 180 6 1
footprint=DIP8
T 47800 47500 5 10 1 1 180 6 1
refdes=U?
}
C 49400 47400 1 180 0 lm358-1.sym
{
T 48725 46800 5 10 0 0 180 0 1
device=LM358
T 48700 46050 5 10 0 0 180 0 1
footprint=DIP8
T 49200 46500 5 10 1 1 180 0 1
refdes=U?
}
N 48400 47300 49200 47800 4
N 49200 47800 49200 48500 4
N 49700 46400 49700 49500 4
N 49700 49500 50000 49500 4
B 49500 49000 1000 1000 3 0 0 0 -1 -1 0 -1 -1 -1 -1 -1
B 46500 49000 1000 1000 3 0 0 0 -1 -1 0 -1 -1 -1 -1 -1
B 49500 48000 1000 1000 3 0 0 0 -1 -1 0 -1 -1 -1 -1 -1
B 49500 47000 1000 1000 3 0 0 0 -1 -1 0 -1 -1 -1 -1 -1
B 49500 46000 1000 1000 3 0 0 0 -1 -1 0 -1 -1 -1 -1 -1
N 49200 48500 50000 48500 4
B 46500 48000 1000 1000 3 0 0 0 -1 -1 0 -1 -1 -1 -1 -1
B 46500 47000 1000 1000 3 0 0 0 -1 -1 0 -1 -1 -1 -1 -1
B 46500 46000 1000 1000 3 0 0 0 -1 -1 0 -1 -1 -1 -1 -1
N 48400 47300 48400 47000 4
N 48100 46400 49700 46400 4
N 48900 46400 48900 46600 4
N 48100 46400 48100 47600 4
N 48600 48000 48600 48300 4
N 48600 48300 47800 48800 4
N 47800 48800 47800 49500 4
N 47800 49500 47000 49500 4
N 48900 47400 48900 49200 4
N 48900 49200 47300 49200 4
N 47300 49200 47300 46500 4
N 47300 46500 47000 46500 4
N 48100 48400 48100 49200 4
N 47600 48200 47600 48500 4
N 47600 48500 47000 48500 4
N 47600 47800 47600 47500 4
N 47600 47500 47000 47500 4
N 49400 47200 49400 47500 4
N 49400 47500 50000 47500 4
N 49400 46800 49400 46500 4
N 49400 46500 50000 46500 4
